{
  "resourceType": "Questionnaire",
  "id": "f201",
  "text": {
    "status": "generated",
    "div": "<div xmlns=\"http://www.w3.org/1999/xhtml\">\n      <pre>Lifelines Questionnaire 1 part 1\n  1. Do you have allergies?\n  2. General Questions:\n    2.a) What is your gender?\n    2.b) What is your date of birth?\n    2.c) What is your country of birth?\n    2.d) What is your marital status?\n    3. Intoxications:\n      3.a) Do you smoke?\n      3.b) Do you drink alcohol?</pre>\n    </div>"
  },
  "url": "http://hl7.org/fhir/Questionnaire/f201",
  "status": "active",
  "subjectType": ["Patient"],
  "date": "2010",
  "code": [
    {
      "system": "http://example.org/system/code/lifelines/nl",
      "code": "VL 1-1, 18-65_1.2.2",
      "display": "Lifelines Questionnaire 1 part 1"
    }
  ],
  "item": [
    {
      "linkId": "1",
      "text": "Boolean test",
      "type": "boolean"
    },
    {
      "linkId": "1.1",
      "code": [
        {
          "system": "http://example.org/system/code/questions",
          "code": "COMORB"
        }
      ],
      "text": "Choice test",
      "prefix": "1",
      "type": "choice",
      "answerValueSet": "http://hl7.org/fhir/ValueSet/yesnodontknow"
    },
    {
      "linkId": "1.2",
      "code": [
        {
          "system": "http://example.org/system/code/questions",
          "code": "COMORB"
        }
      ],
      "prefix": "1",
      "text": "Open Choice test",
      "type": "open-choice",
      "answerValueSet": "http://hl7.org/fhir/ValueSet/yesnodontknow"
    },
    {
      "linkId": "2",
      "text": "Basic Group",
      "type": "group",
      "item": [
        {
          "linkId": "2.1",
          "text": "Integer test",
          "type": "integer"
        },
        {
          "linkId": "2.2",
          "text": "Decimal Test",
          "type": "decimal"
        },
        {
          "linkId": "2.3",
          "text": "Date",
          "type": "date"
        },
        {
          "linkId": "2.4",
          "text": "Date Time test",
          "type": "dateTime"
        },
        {
          "linkId": "2.5",
          "text": "Time test",
          "type": "time"
        },
        {
          "linkId": "2.6",
          "text": "Text test",
          "type": "text"
        },
        {
          "linkId": "2.7",
          "text": "String test",
          "type": "string"
        },
        {
          "linkId": "2.8",
          "text": "Url test",
          "type": "url"
        },
        {
          "linkId": "2.9",
          "text": "Attachment test",
          "type": "attachment"
        },
        {
          "linkId": "2.10",
          "text": "Reference test",
          "type": "reference"
        },
        {
          "linkId": "2.11",
          "text": "Quantity test",
          "type": "quantity"
        }
      ]
    },
    {
      "linkId": "3",
      "text": "Repeat Group",
      "type": "group",
      "repeats": true,
      "item": [
        {
          "linkId": "3.1",
          "text": "Do you smoke?",
          "type": "boolean"
        },
        {
          "linkId": "3.2",
          "text": "Do you drink alchohol?",
          "type": "boolean"
        }
      ]
    }
  ]
}
