{
  "resourceType": "Bundle",
  "id": "valuesets",
  "type": "collection",
  "entry": [
    {
      "resource": {
        "resourceType": "ValueSet",
        "id": "supported-endpoint-auths",
        "url": "http://genfhi.com/supported-endpoint-auths",
        "status": "draft",
        "compose": {
          "include": [
            {
              "system": "https://genfhi.com/CodeSystem/supported-endpoint-auths"
            }
          ]
        }
      }
    },
    {
      "resource": {
        "resourceType": "CodeSystem",
        "id": "supported-endpoint-auths-codesystem",
        "url": "https://genfhi.com/CodeSystem/supported-endpoint-auths",
        "status": "draft",
        "concept": [
          {
            "code": "none",
            "display": "None"
          },
          {
            "code": "basic",
            "display": "Basic"
          },
          {
            "code": "smart-standalone",
            "display": "SMART Standalone Launch"
          },
          {
            "code": "smart-ehr",
            "display": "SMART EHR Launch"
          },
          {
            "code": "oauth2-confidential",
            "display": "OAuth2 Confidential Client"
          }
        ]
      }
    }
  ]
}
