{
  "resourceType": "OperationDefinition",
  "id": "cloud-undeploy",
  "url": "https://genfhi.com/OperationDefinition/cloud-undeploy",
  "version": "4.0.1",
  "name": "Client App download",
  "status": "draft",
  "kind": "operation",
  "publisher": "GenFHI",
  "code": "cloud-undeploy",
  "system": true,
  "type": false,
  "instance": false,
  "parameter": [
    {
      "name": "client-app",
      "use": "in",
      "min": 1,
      "max": "1",
      "type": "Reference"
    },
    {
      "name": "return",
      "use": "out",
      "min": 0,
      "max": "1",
      "type": "string"
    }
  ]
}
