{
  "resourceType": "Bundle",
  "id": "valuesets",
  "type": "collection",
  "entry": [
    {
      "resource": {
        "resourceType": "ValueSet",
        "id": "application-action-level",
        "url": "http://genfhi.com/application-action-level",
        "status": "draft",
        "compose": {
          "include": [
            {
              "system": "https://genfhi.com/CodeSystem/application-action-level"
            }
          ]
        }
      }
    },
    {
      "resource": {
        "resourceType": "CodeSystem",
        "id": "application-action-level-codesystem",
        "url": "https://genfhi.com/CodeSystem/application-action-level",
        "status": "draft",
        "concept": [
          {
            "code": "system",
            "display": "System"
          },
          {
            "code": "resource",
            "display": "Resource"
          }
        ]
      }
    }
  ]
}
