{
  "resourceType": "Bundle",
  "id": "valuesets",
  "meta": {
    "lastUpdated": "2019-11-01T09:29:23.356+11:00"
  },
  "type": "collection",
  "entry": [
    {
      "resource": {
        "resourceType": "ValueSet",
        "id": "application-widget-handler-type-valueset",
        "url": "http://genfhi.com/ValueSet/application-widget-handler-type-valueset",
        "status": "draft",
        "compose": {
          "include": [
            {
              "system": "https://genfhi.com/CodeSystem/application-widget-handler-type"
            }
          ]
        }
      }
    },
    {
      "resource": {
        "resourceType": "CodeSystem",
        "id": "application-widget-handler-type-codesystem",
        "url": "https://genfhi.com/CodeSystem/application-widget-handler-type",
        "status": "draft",
        "concept": [
          {
            "code": "trigger-action",
            "display": "Trigger Action"
          }
        ]
      }
    }
  ]
}
