{
  "resourceType": "Bundle",
  "id": "valuesets",
  "type": "collection",
  "entry": [
    {
      "resource": {
        "resourceType": "ValueSet",
        "id": "app-version",
        "url": "http://genfhi.com/app-version",
        "status": "draft",
        "compose": {
          "include": [
            {
              "system": "https://genfhi.com/CodeSystem/app-version"
            }
          ]
        }
      }
    },
    {
      "resource": {
        "resourceType": "CodeSystem",
        "id": "app-version",
        "url": "https://genfhi.com/CodeSystem/app-version",
        "status": "draft",
        "concept": [
          {
            "code": "v1",
            "display": "v1"
          },
          {
            "code": "v2",
            "display": "v2"
          },
          {
            "code": "v3",
            "display": "v3"
          },
          {
            "code": "v4",
            "display": "v4"
          },
          {
            "code": "v5",
            "display": "v5"
          },
          {
            "code": "v6",
            "display": "v6"
          },
          { "code": "v7", "display": "v7" }
        ]
      }
    }
  ]
}
