{
  "resourceType": "Bundle",
  "id": "valuesets",
  "type": "collection",
  "entry": [
    {
      "resource": {
        "resourceType": "ValueSet",
        "id": "widget-version",
        "url": "http://genfhi.com/widget-version",
        "status": "draft",
        "compose": {
          "include": [
            {
              "system": "https://genfhi.com/CodeSystem/widget-version"
            }
          ]
        }
      }
    },
    {
      "resource": {
        "resourceType": "CodeSystem",
        "id": "widget-version",
        "url": "https://genfhi.com/CodeSystem/widget-version",
        "status": "draft",
        "concept": [
          {
            "code": "v0",
            "display": "v0"
          },
          {
            "code": "v1",
            "display": "v1"
          }
        ]
      }
    }
  ]
}
